{
  "name": "eic-font",
  "css_prefix_text": "icon-",
  "css_use_suffix": false,
  "hinting": true,
  "units_per_em": 1000,
  "ascent": 850,
  "glyphs": [
    {
      "uid": "ccc2329632396dc096bb638d4b46fb98",
      "css": "mail-alt",
      "code": 59394,
      "src": "fontawesome"
    },
    {
      "uid": "474656633f79ea2f1dad59ff63f6bf07",
      "css": "star",
      "code": 59397,
      "src": "fontawesome"
    },
    {
      "uid": "895405dfac8a3b7b2f23b183c6608ee6",
      "css": "export",
      "code": 59399,
      "src": "fontawesome"
    },
    {
      "uid": "72b1277834cba5b7944b0a6cac7ddb0d",
      "css": "rss",
      "code": 59396,
      "src": "fontawesome"
    },
    {
      "uid": "f3f90c8c89795da30f7444634476ea4f",
      "css": "angle-left",
      "code": 59400,
      "src": "fontawesome"
    },
    {
      "uid": "7bf14281af5633a597f85b061ef1cfb9",
      "css": "angle-right",
      "code": 59395,
      "src": "fontawesome"
    },
    {
      "uid": "745f12abe1472d14f8f658de7e5aba66",
      "css": "angle-double-left",
      "code": 59392,
      "src": "fontawesome"
    },
    {
      "uid": "fdfbd1fcbd4cb229716a810801a5f207",
      "css": "angle-double-right",
      "code": 59393,
      "src": "fontawesome"
    },
    {
      "uid": "d5937c5767642d0336ad599af0e9c992",
      "css": "share",
      "code": 59398,
      "src": "elusive"
    }
  ]
}